Eurasian lynx reintroduction
…
# Calculate survival probability as number of replicate with surviving individuals per year
# Extinction probability is 1- survival probability:

# Calculate  extinction probability by hand:
pop_29 %>%
  group_by(Rep,Year) %>%
  # Sum individuals over all cells per year and replicate
  summarise(sumPop = sum(NInd), .groups='keep') %>%
  group_by(Year) %>%
  # Average extinction probability (1 minus the proportion of replicates with surviving populations)
  summarise(extProb = 1-sum(sumPop>0, na.rm=T)/RepNb)

## # A tibble: 101 × 2
##     Year extProb
##    <int>   <dbl>
##  1     0  0     
##  2     1  0     
##  3     2  0     
##  4     3  0     
##  5     4  0     
##  6     5  0     
##  7     6  0     
##  8     7  0     
##  9     8  0     
## 10     9  0.0100
## # … with 91 more rows
…
