Black grouse range dynamics
…
# Make data frame with mean abundances per cell and selected year:
pop_static_wide <- pop_static %>%
  # Select years you want to map
  filter(Year %in% c(spinup, spinup+sim_years) ) %>%
  # Define grouping variables
  group_by(x,y,Year) %>%
  # Average individuals over replicate runs
  summarise(meanInd = mean(NInd)) %>%
  # Make separate columns for different years
  pivot_wider(names_from=Year, values_from=meanInd)

pop_static_wide

## # A tibble: 8,580 × 4
## # Groups:   x, y [8,580]
##        x     y  `25` `125`
##    <dbl> <dbl> <dbl> <dbl>
##  1 63500 57500   0.5   0.3
##  2 63500 58500   0.2   0.1
##  3 63500 60500   0.6   1  
##  4 64500 36500   0.1   0.3
##  5 64500 57500   0.5   0.2
##  6 64500 58500   0.1   0  
##  7 65500 35500   0.3   0.3
##  8 65500 36500   0.2   0  
##  9 65500 37500   0     0  
## 10 65500 38500   0.4   0.3
## # ℹ 8,570 more rows
…
